{
  "name": "splittermond",
  "title": "Splittermond",
  "description": "A system for playing the german pen and paper RPG Splittermond.",
  "version": "0.6.3",
  "author": "Simon",
  "scripts": [],
  "esmodules": [
    "splittermond.js"
  ],
  "styles": [
    "splittermond.css"
  ],
  "packs": [
    {
      "name": "species",
      "label": "Spezies",
      "system": "splittermond",
      "path": "packs/species.db",
      "entity": "Item",
      "tags": [
        "species"
      ],
      "langs": [
        "de"
      ]
    },
    {
      "name": "macros",
      "label": "Macros",
      "system": "splittermond",
      "path": "packs/macros.db",
      "entity": "Macro",
      "tags": [
        "macros"
      ],
      "langs": [
        "de"
      ]
    },
    {
      "name": "journal-entries",
      "label": "Journal",
      "system": "splittermond",
      "path": "packs/journal-entries.db",
      "entity": "JournalEntry",
      "tags": [
        "journal-entry"
      ],
      "langs": [
        "de"
      ]
    },
    {
      "name": "statuseffects",
      "label": "Zustände",
      "system": "splittermond",
      "path": "packs/status-effects.db",
      "entity": "Item",
      "tags": [
        "statuseffect"
      ],
      "langs": [
        "de"
      ]
    }
  ],
  "languages": [
    {
      "lang": "en",
      "name": "English",
      "path": "lang/de.json"
    },
    {
      "lang": "de",
      "name": "Deutsch",
      "path": "lang/de.json"
    }
  ],
  "socket": true,
  "gridDistance": 1,
  "gridUnits": "m",
  "initiative": "@initiative - 1d6",
  "primaryTokenAttribute": "data.healthBar",
  "secondaryTokenAttribute": "data.focusBar",
  "minimumCoreVersion": "0.8.6",
  "compatibleCoreVersion": "0.8.9",
  "url": "https://bitbucket.org/rpgframework-cloud/splittermond-fvtt/",
  "manifest": "https://bitbucket.org/rpgframework-cloud/splittermond-fvtt/raw/main/system.json",
  "download": "https://bitbucket.org/rpgframework-cloud/splittermond-fvtt/get/main.zip"
}